EESchema Schematic File Version 4
EELAYER 30 0
EELAYER END
$Descr A4 11693 8268
encoding utf-8
Sheet 1 1
Title ""
Date ""
Rev ""
Comp ""
Comment1 ""
Comment2 ""
Comment3 ""
Comment4 ""
$EndDescr
$Comp
L power:GND #PWR?
U 1 1 5DCC064D
P 1850 1950
F 0 "#PWR?" H 1850 1700 50  0001 C CNN
F 1 "GND" H 1855 1777 50  0000 C CNN
F 2 "" H 1850 1950 50  0001 C CNN
F 3 "" H 1850 1950 50  0001 C CNN
	1    1850 1950
	1    0    0    -1  
$EndComp
$Comp
L power:+5V #PWR?
U 1 1 5DCC0D12
P 1850 850
F 0 "#PWR?" H 1850 700 50  0001 C CNN
F 1 "+5V" H 1865 1023 50  0000 C CNN
F 2 "" H 1850 850 50  0001 C CNN
F 3 "" H 1850 850 50  0001 C CNN
	1    1850 850 
	1    0    0    -1  
$EndComp
$Comp
L LED:WS2812B D?
U 1 1 5DCC18EE
P 8250 1750
F 0 "D?" H 8450 1950 50  0000 L CNN
F 1 "WS2812B" H 8300 1500 50  0000 L CNN
F 2 "LED_SMD:LED_WS2812B_PLCC4_5.0x5.0mm_P3.2mm" H 8300 1450 50  0001 L TNN
F 3 "https://cdn-shop.adafruit.com/datasheets/WS2812B.pdf" H 8350 1375 50  0001 L TNN
	1    8250 1750
	1    0    0    -1  
$EndComp
$Comp
L LED:WS2812B D?
U 1 1 5DCC2390
P 9000 1750
F 0 "D?" H 9200 1950 50  0000 L CNN
F 1 "WS2812B" H 9050 1500 50  0000 L CNN
F 2 "LED_SMD:LED_WS2812B_PLCC4_5.0x5.0mm_P3.2mm" H 9050 1450 50  0001 L TNN
F 3 "https://cdn-shop.adafruit.com/datasheets/WS2812B.pdf" H 9100 1375 50  0001 L TNN
	1    9000 1750
	1    0    0    -1  
$EndComp
$Comp
L LED:WS2812B D?
U 1 1 5DCC2832
P 9750 1750
F 0 "D?" H 9950 1950 50  0000 L CNN
F 1 "WS2812B" H 9800 1500 50  0000 L CNN
F 2 "LED_SMD:LED_WS2812B_PLCC4_5.0x5.0mm_P3.2mm" H 9800 1450 50  0001 L TNN
F 3 "https://cdn-shop.adafruit.com/datasheets/WS2812B.pdf" H 9850 1375 50  0001 L TNN
	1    9750 1750
	1    0    0    -1  
$EndComp
$Comp
L LED:WS2812B D?
U 1 1 5DCC2CF1
P 10500 1750
F 0 "D?" H 10700 1950 50  0000 L CNN
F 1 "WS2812B" H 10550 1500 50  0000 L CNN
F 2 "LED_SMD:LED_WS2812B_PLCC4_5.0x5.0mm_P3.2mm" H 10550 1450 50  0001 L TNN
F 3 "https://cdn-shop.adafruit.com/datasheets/WS2812B.pdf" H 10600 1375 50  0001 L TNN
	1    10500 1750
	1    0    0    -1  
$EndComp
$Comp
L LED:WS2812B D?
U 1 1 5DCC30F8
P 8250 3050
F 0 "D?" H 8450 3250 50  0000 L CNN
F 1 "WS2812B" H 8300 2800 50  0000 L CNN
F 2 "LED_SMD:LED_WS2812B_PLCC4_5.0x5.0mm_P3.2mm" H 8300 2750 50  0001 L TNN
F 3 "https://cdn-shop.adafruit.com/datasheets/WS2812B.pdf" H 8350 2675 50  0001 L TNN
	1    8250 3050
	1    0    0    -1  
$EndComp
$Comp
L LED:WS2812B D?
U 1 1 5DCC36F2
P 9000 3050
F 0 "D?" H 9200 3250 50  0000 L CNN
F 1 "WS2812B" H 9050 2800 50  0000 L CNN
F 2 "LED_SMD:LED_WS2812B_PLCC4_5.0x5.0mm_P3.2mm" H 9050 2750 50  0001 L TNN
F 3 "https://cdn-shop.adafruit.com/datasheets/WS2812B.pdf" H 9100 2675 50  0001 L TNN
	1    9000 3050
	1    0    0    -1  
$EndComp
$Comp
L LED:WS2812B D?
U 1 1 5DCC3C1F
P 9750 3050
F 0 "D?" H 9950 3250 50  0000 L CNN
F 1 "WS2812B" H 9800 2800 50  0000 L CNN
F 2 "LED_SMD:LED_WS2812B_PLCC4_5.0x5.0mm_P3.2mm" H 9800 2750 50  0001 L TNN
F 3 "https://cdn-shop.adafruit.com/datasheets/WS2812B.pdf" H 9850 2675 50  0001 L TNN
	1    9750 3050
	1    0    0    -1  
$EndComp
$Comp
L LED:WS2812B D?
U 1 1 5DCC47E3
P 10500 3050
F 0 "D?" H 10700 3250 50  0000 L CNN
F 1 "WS2812B" H 10550 2800 50  0000 L CNN
F 2 "LED_SMD:LED_WS2812B_PLCC4_5.0x5.0mm_P3.2mm" H 10550 2750 50  0001 L TNN
F 3 "https://cdn-shop.adafruit.com/datasheets/WS2812B.pdf" H 10600 2675 50  0001 L TNN
	1    10500 3050
	1    0    0    -1  
$EndComp
$Comp
L power:GND #PWR?
U 1 1 5DCD04E5
P 8250 2150
F 0 "#PWR?" H 8250 1900 50  0001 C CNN
F 1 "GND" H 8255 1977 50  0000 C CNN
F 2 "" H 8250 2150 50  0001 C CNN
F 3 "" H 8250 2150 50  0001 C CNN
	1    8250 2150
	1    0    0    -1  
$EndComp
$Comp
L power:GND #PWR?
U 1 1 5DCD0869
P 9000 2150
F 0 "#PWR?" H 9000 1900 50  0001 C CNN
F 1 "GND" H 9005 1977 50  0000 C CNN
F 2 "" H 9000 2150 50  0001 C CNN
F 3 "" H 9000 2150 50  0001 C CNN
	1    9000 2150
	1    0    0    -1  
$EndComp
$Comp
L power:GND #PWR?
U 1 1 5DCD0B9C
P 9750 2150
F 0 "#PWR?" H 9750 1900 50  0001 C CNN
F 1 "GND" H 9755 1977 50  0000 C CNN
F 2 "" H 9750 2150 50  0001 C CNN
F 3 "" H 9750 2150 50  0001 C CNN
	1    9750 2150
	1    0    0    -1  
$EndComp
$Comp
L power:GND #PWR?
U 1 1 5DCD0E91
P 10500 2150
F 0 "#PWR?" H 10500 1900 50  0001 C CNN
F 1 "GND" H 10505 1977 50  0000 C CNN
F 2 "" H 10500 2150 50  0001 C CNN
F 3 "" H 10500 2150 50  0001 C CNN
	1    10500 2150
	1    0    0    -1  
$EndComp
$Comp
L power:GND #PWR?
U 1 1 5DCD1195
P 8250 3450
F 0 "#PWR?" H 8250 3200 50  0001 C CNN
F 1 "GND" H 8255 3277 50  0000 C CNN
F 2 "" H 8250 3450 50  0001 C CNN
F 3 "" H 8250 3450 50  0001 C CNN
	1    8250 3450
	1    0    0    -1  
$EndComp
$Comp
L power:GND #PWR?
U 1 1 5DCD1545
P 9000 3450
F 0 "#PWR?" H 9000 3200 50  0001 C CNN
F 1 "GND" H 9005 3277 50  0000 C CNN
F 2 "" H 9000 3450 50  0001 C CNN
F 3 "" H 9000 3450 50  0001 C CNN
	1    9000 3450
	1    0    0    -1  
$EndComp
$Comp
L power:GND #PWR?
U 1 1 5DCD1972
P 9750 3450
F 0 "#PWR?" H 9750 3200 50  0001 C CNN
F 1 "GND" H 9755 3277 50  0000 C CNN
F 2 "" H 9750 3450 50  0001 C CNN
F 3 "" H 9750 3450 50  0001 C CNN
	1    9750 3450
	1    0    0    -1  
$EndComp
$Comp
L power:GND #PWR?
U 1 1 5DCD1CDA
P 10500 3450
F 0 "#PWR?" H 10500 3200 50  0001 C CNN
F 1 "GND" H 10505 3277 50  0000 C CNN
F 2 "" H 10500 3450 50  0001 C CNN
F 3 "" H 10500 3450 50  0001 C CNN
	1    10500 3450
	1    0    0    -1  
$EndComp
$Comp
L power:+5V #PWR?
U 1 1 5DCD2071
P 8250 1350
F 0 "#PWR?" H 8250 1200 50  0001 C CNN
F 1 "+5V" H 8265 1523 50  0000 C CNN
F 2 "" H 8250 1350 50  0001 C CNN
F 3 "" H 8250 1350 50  0001 C CNN
	1    8250 1350
	1    0    0    -1  
$EndComp
$Comp
L power:+5V #PWR?
U 1 1 5DCD246E
P 9000 1350
F 0 "#PWR?" H 9000 1200 50  0001 C CNN
F 1 "+5V" H 9015 1523 50  0000 C CNN
F 2 "" H 9000 1350 50  0001 C CNN
F 3 "" H 9000 1350 50  0001 C CNN
	1    9000 1350
	1    0    0    -1  
$EndComp
$Comp
L power:+5V #PWR?
U 1 1 5DCD27A6
P 9750 1350
F 0 "#PWR?" H 9750 1200 50  0001 C CNN
F 1 "+5V" H 9765 1523 50  0000 C CNN
F 2 "" H 9750 1350 50  0001 C CNN
F 3 "" H 9750 1350 50  0001 C CNN
	1    9750 1350
	1    0    0    -1  
$EndComp
$Comp
L power:+5V #PWR?
U 1 1 5DCD2BC1
P 10500 1350
F 0 "#PWR?" H 10500 1200 50  0001 C CNN
F 1 "+5V" H 10515 1523 50  0000 C CNN
F 2 "" H 10500 1350 50  0001 C CNN
F 3 "" H 10500 1350 50  0001 C CNN
	1    10500 1350
	1    0    0    -1  
$EndComp
$Comp
L power:+5V #PWR?
U 1 1 5DCD2F74
P 8250 2650
F 0 "#PWR?" H 8250 2500 50  0001 C CNN
F 1 "+5V" H 8265 2823 50  0000 C CNN
F 2 "" H 8250 2650 50  0001 C CNN
F 3 "" H 8250 2650 50  0001 C CNN
	1    8250 2650
	1    0    0    -1  
$EndComp
$Comp
L power:+5V #PWR?
U 1 1 5DCD33B7
P 9000 2650
F 0 "#PWR?" H 9000 2500 50  0001 C CNN
F 1 "+5V" H 9015 2823 50  0000 C CNN
F 2 "" H 9000 2650 50  0001 C CNN
F 3 "" H 9000 2650 50  0001 C CNN
	1    9000 2650
	1    0    0    -1  
$EndComp
$Comp
L power:+5V #PWR?
U 1 1 5DCD3739
P 9750 2650
F 0 "#PWR?" H 9750 2500 50  0001 C CNN
F 1 "+5V" H 9765 2823 50  0000 C CNN
F 2 "" H 9750 2650 50  0001 C CNN
F 3 "" H 9750 2650 50  0001 C CNN
	1    9750 2650
	1    0    0    -1  
$EndComp
$Comp
L power:+5V #PWR?
U 1 1 5DCD3AC2
P 10500 2650
F 0 "#PWR?" H 10500 2500 50  0001 C CNN
F 1 "+5V" H 10515 2823 50  0000 C CNN
F 2 "" H 10500 2650 50  0001 C CNN
F 3 "" H 10500 2650 50  0001 C CNN
	1    10500 2650
	1    0    0    -1  
$EndComp
Wire Wire Line
	8550 1750 8700 1750
Wire Wire Line
	10050 1750 10200 1750
Wire Wire Line
	8250 1350 8250 1450
Wire Wire Line
	9000 1350 9000 1450
Wire Wire Line
	9750 1350 9750 1450
Wire Wire Line
	10500 1350 10500 1450
Wire Wire Line
	8250 2650 8250 2750
Wire Wire Line
	9000 2650 9000 2750
Wire Wire Line
	9750 2650 9750 2750
Wire Wire Line
	10500 2650 10500 2750
Wire Wire Line
	8250 3350 8250 3450
Wire Wire Line
	9000 3350 9000 3450
Wire Wire Line
	9750 3350 9750 3450
Wire Wire Line
	10500 3350 10500 3450
Wire Wire Line
	9300 1750 9450 1750
Wire Wire Line
	8550 3050 8700 3050
Wire Wire Line
	9300 3050 9450 3050
Wire Wire Line
	10050 3050 10200 3050
Wire Wire Line
	10800 1750 10850 1750
Wire Wire Line
	10850 1750 10850 2400
Wire Wire Line
	10850 2400 7900 2400
Wire Wire Line
	7900 2400 7900 3050
Wire Wire Line
	7900 3050 7950 3050
Wire Wire Line
	8250 2050 8250 2150
Wire Wire Line
	9000 2050 9000 2150
Wire Wire Line
	9750 2050 9750 2150
Wire Wire Line
	10500 2050 10500 2150
Wire Wire Line
	7550 1750 7950 1750
Text GLabel 1100 1100 0    50   Output ~ 0
IUVIATX
Text GLabel 1100 1200 0    50   Input ~ 0
IUVIARX
Text Notes 7050 900  0    118  ~ 24
IUVIA IOBOARD
$Comp
L Connector_Generic:Conn_02x10_Odd_Even J?
U 1 1 5E10ACD3
P 1450 1400
F 0 "J?" H 1500 2017 50  0000 C CNN
F 1 "ODROID GPIO" H 1500 1926 50  0000 C CNN
F 2 "" H 1450 1400 50  0001 C CNN
F 3 "~" H 1450 1400 50  0001 C CNN
	1    1450 1400
	1    0    0    -1  
$EndComp
Wire Wire Line
	1750 1000 1850 1000
Wire Wire Line
	1850 1000 1850 850 
Wire Wire Line
	1750 1700 1850 1700
Wire Wire Line
	1850 1700 1850 1950
$Comp
L Sensor_Current:ACS712xLCTR-05B U?
U 1 1 5E13628B
P 5350 6750
F 0 "U?" H 5450 7250 50  0000 C CNN
F 1 "ACS712xLCTR-05B" H 5750 7150 50  0000 C CNN
F 2 "Package_SO:SOIC-8_3.9x4.9mm_P1.27mm" H 5450 6400 50  0001 L CIN
F 3 "http://www.allegromicro.com/~/media/Files/Datasheets/ACS712-Datasheet.ashx?la=en" H 5350 6750 50  0001 C CNN
	1    5350 6750
	1    0    0    -1  
$EndComp
$Comp
L Connector_Generic:Conn_01x02 J?
U 1 1 5E1387A7
P 4250 6700
F 0 "J?" H 4168 6917 50  0000 C CNN
F 1 "PWR" H 4168 6826 50  0000 C CNN
F 2 "" H 4250 6700 50  0001 C CNN
F 3 "~" H 4250 6700 50  0001 C CNN
	1    4250 6700
	-1   0    0    -1  
$EndComp
Wire Wire Line
	4450 6700 4750 6700
Wire Wire Line
	4750 6700 4750 6550
Wire Wire Line
	4750 6550 4950 6550
Wire Wire Line
	4450 6800 4750 6800
Wire Wire Line
	4750 6800 4750 6950
Wire Wire Line
	4750 6950 4950 6950
$Comp
L power:GND #PWR?
U 1 1 5E13CC06
P 5350 7300
F 0 "#PWR?" H 5350 7050 50  0001 C CNN
F 1 "GND" H 5355 7127 50  0000 C CNN
F 2 "" H 5350 7300 50  0001 C CNN
F 3 "" H 5350 7300 50  0001 C CNN
	1    5350 7300
	1    0    0    -1  
$EndComp
$Comp
L power:+5V #PWR?
U 1 1 5E13D09B
P 5350 6050
F 0 "#PWR?" H 5350 5900 50  0001 C CNN
F 1 "+5V" H 5365 6223 50  0000 C CNN
F 2 "" H 5350 6050 50  0001 C CNN
F 3 "" H 5350 6050 50  0001 C CNN
	1    5350 6050
	1    0    0    -1  
$EndComp
Wire Wire Line
	5350 6350 5350 6050
Wire Wire Line
	5350 7150 5350 7300
$Comp
L Device:C C?
U 1 1 5E140E1E
P 5900 7050
F 0 "C?" H 6015 7096 50  0000 L CNN
F 1 "1nF" H 6015 7005 50  0000 L CNN
F 2 "" H 5938 6900 50  0001 C CNN
F 3 "~" H 5900 7050 50  0001 C CNN
	1    5900 7050
	1    0    0    -1  
$EndComp
$Comp
L power:+5V #PWR?
U 1 1 5E141D39
P 6350 6050
F 0 "#PWR?" H 6350 5900 50  0001 C CNN
F 1 "+5V" H 6365 6223 50  0000 C CNN
F 2 "" H 6350 6050 50  0001 C CNN
F 3 "" H 6350 6050 50  0001 C CNN
	1    6350 6050
	1    0    0    -1  
$EndComp
$Comp
L Device:C C?
U 1 1 5E14223C
P 6350 6250
F 0 "C?" H 6465 6296 50  0000 L CNN
F 1 "100nF" H 6465 6205 50  0000 L CNN
F 2 "" H 6388 6100 50  0001 C CNN
F 3 "~" H 6350 6250 50  0001 C CNN
	1    6350 6250
	1    0    0    -1  
$EndComp
$Comp
L power:GND #PWR?
U 1 1 5E145CA0
P 5900 7300
F 0 "#PWR?" H 5900 7050 50  0001 C CNN
F 1 "GND" H 5905 7127 50  0000 C CNN
F 2 "" H 5900 7300 50  0001 C CNN
F 3 "" H 5900 7300 50  0001 C CNN
	1    5900 7300
	1    0    0    -1  
$EndComp
Wire Wire Line
	5750 6850 5900 6850
Wire Wire Line
	5900 6850 5900 6900
Wire Wire Line
	5900 7200 5900 7300
Text GLabel 6100 6750 2    50   Output ~ 0
PWRMSR
Wire Wire Line
	5750 6750 6100 6750
$Comp
L power:GND #PWR?
U 1 1 5E14F102
P 6350 6450
F 0 "#PWR?" H 6350 6200 50  0001 C CNN
F 1 "GND" H 6355 6277 50  0000 C CNN
F 2 "" H 6350 6450 50  0001 C CNN
F 3 "" H 6350 6450 50  0001 C CNN
	1    6350 6450
	1    0    0    -1  
$EndComp
Wire Wire Line
	6350 6050 6350 6100
Wire Wire Line
	6350 6400 6350 6450
$Comp
L ladecadence:ESP-12S U?
U 1 1 5E610DC4
P 4050 2150
F 0 "U?" H 4050 3017 50  0000 C CNN
F 1 "ESP-12S" H 4050 2926 50  0000 C CNN
F 2 "ESP-12S" H 4050 2150 50  0001 L BNN
F 3 "IC-14115" H 4050 2150 50  0001 L BNN
	1    4050 2150
	1    0    0    -1  
$EndComp
Text GLabel 4550 2550 2    50   BiDi ~ 0
D4
Wire Wire Line
	4450 2550 4550 2550
Text GLabel 4550 1650 2    50   Input ~ 0
IUVIATX
Text GLabel 4550 1550 2    50   Output ~ 0
IUVIARX
Wire Wire Line
	4450 1550 4550 1550
Wire Wire Line
	4450 1650 4550 1650
$Comp
L Device:R R?
U 1 1 5E627889
P 1350 4300
F 0 "R?" V 1450 4450 50  0000 C CNN
F 1 "12k" V 1350 4300 50  0000 C CNN
F 2 "" V 1280 4300 50  0001 C CNN
F 3 "~" H 1350 4300 50  0001 C CNN
	1    1350 4300
	0    1    1    0   
$EndComp
$Comp
L Device:R R?
U 1 1 5E62838A
P 1350 4500
F 0 "R?" V 1450 4650 50  0000 C CNN
F 1 "12k" V 1350 4500 50  0000 C CNN
F 2 "" V 1280 4500 50  0001 C CNN
F 3 "~" H 1350 4500 50  0001 C CNN
	1    1350 4500
	0    1    1    0   
$EndComp
$Comp
L Device:R R?
U 1 1 5E628846
P 1350 4700
F 0 "R?" V 1400 4850 50  0000 C CNN
F 1 "12K" V 1350 4700 50  0000 C CNN
F 2 "" V 1280 4700 50  0001 C CNN
F 3 "~" H 1350 4700 50  0001 C CNN
	1    1350 4700
	0    1    1    0   
$EndComp
$Comp
L Device:R R?
U 1 1 5E628CB6
P 1350 4900
F 0 "R?" V 1450 5000 50  0000 C CNN
F 1 "12k" V 1350 4900 50  0000 C CNN
F 2 "" V 1280 4900 50  0001 C CNN
F 3 "~" H 1350 4900 50  0001 C CNN
	1    1350 4900
	0    1    1    0   
$EndComp
$Comp
L Device:R R?
U 1 1 5E6290FE
P 1350 5100
F 0 "R?" V 1450 5200 50  0000 C CNN
F 1 "12k" V 1350 5100 50  0000 C CNN
F 2 "" V 1280 5100 50  0001 C CNN
F 3 "~" H 1350 5100 50  0001 C CNN
	1    1350 5100
	0    1    1    0   
$EndComp
$Comp
L power:+3V3 #PWR?
U 1 1 5E654079
P 950 4050
F 0 "#PWR?" H 950 3900 50  0001 C CNN
F 1 "+3V3" H 965 4223 50  0000 C CNN
F 2 "" H 950 4050 50  0001 C CNN
F 3 "" H 950 4050 50  0001 C CNN
	1    950  4050
	1    0    0    -1  
$EndComp
Wire Wire Line
	950  4900 1200 4900
Wire Wire Line
	1200 4700 950  4700
Wire Wire Line
	950  4050 950  4300
Connection ~ 950  4700
Wire Wire Line
	950  4700 950  4900
Wire Wire Line
	1200 4500 950  4500
Connection ~ 950  4500
Wire Wire Line
	950  4500 950  4700
Wire Wire Line
	1200 4300 950  4300
Connection ~ 950  4300
Wire Wire Line
	950  4300 950  4500
$Comp
L power:GND #PWR?
U 1 1 5E65BE56
P 950 5250
F 0 "#PWR?" H 950 5000 50  0001 C CNN
F 1 "GND" H 955 5077 50  0000 C CNN
F 2 "" H 950 5250 50  0001 C CNN
F 3 "" H 950 5250 50  0001 C CNN
	1    950  5250
	1    0    0    -1  
$EndComp
Wire Wire Line
	1200 5100 950  5100
Wire Wire Line
	950  5100 950  5250
Text GLabel 1700 4300 2    50   Output ~ 0
EN
Text GLabel 2450 4500 2    50   Output ~ 0
RST
Text GLabel 1700 4700 2    50   BiDi ~ 0
D3
Text GLabel 1700 4900 2    50   BiDi ~ 0
D4
Text GLabel 1700 5100 2    50   BiDi ~ 0
D8
Wire Wire Line
	2450 4500 2250 4500
Wire Wire Line
	1700 4300 1500 4300
Wire Wire Line
	1500 4700 1700 4700
Wire Wire Line
	1500 4900 1700 4900
Wire Wire Line
	1700 5100 1500 5100
Text GLabel 4550 1950 2    50   BiDi ~ 0
D8
Text GLabel 4550 2650 2    50   BiDi ~ 0
D3
Wire Wire Line
	4450 2650 4550 2650
Wire Wire Line
	4450 1950 4550 1950
$Comp
L Device:C C?
U 1 1 5E676F19
P 2250 4800
F 0 "C?" H 2365 4846 50  0000 L CNN
F 1 "100n" H 2365 4755 50  0000 L CNN
F 2 "" H 2288 4650 50  0001 C CNN
F 3 "~" H 2250 4800 50  0001 C CNN
	1    2250 4800
	1    0    0    -1  
$EndComp
Wire Wire Line
	2250 4650 2250 4500
Connection ~ 2250 4500
Wire Wire Line
	2250 4500 1500 4500
$Comp
L power:GND #PWR?
U 1 1 5E67957E
P 2250 5250
F 0 "#PWR?" H 2250 5000 50  0001 C CNN
F 1 "GND" H 2255 5077 50  0000 C CNN
F 2 "" H 2250 5250 50  0001 C CNN
F 3 "" H 2250 5250 50  0001 C CNN
	1    2250 5250
	1    0    0    -1  
$EndComp
Wire Wire Line
	2250 4950 2250 5250
$Comp
L ladecadence:UMH3N U?
U 1 1 5E68BCC4
P 1700 3250
F 0 "U?" H 1700 3778 118 0000 C CNN
F 1 "UMH3N" H 1700 3585 118 0000 C CNN
F 2 "" H 1700 3100 118 0001 C CNN
F 3 "" H 1700 3100 118 0001 C CNN
	1    1700 3250
	1    0    0    -1  
$EndComp
Wire Wire Line
	1100 1100 1250 1100
Wire Wire Line
	1100 1200 1250 1200
Text GLabel 1100 1300 0    50   Output ~ 0
IUVIARTS
Text GLabel 1100 1400 0    50   Input ~ 0
IUVIACTS
Wire Wire Line
	1100 1300 1250 1300
Wire Wire Line
	1100 1400 1250 1400
Text GLabel 1200 3100 0    50   Output ~ 0
IUVIARTS
Wire Wire Line
	1350 3100 1200 3100
Text GLabel 2200 3100 2    50   Output ~ 0
RST
Wire Wire Line
	2050 3100 2200 3100
Text GLabel 1200 3400 0    50   BiDi ~ 0
D3
Wire Wire Line
	1200 3400 1350 3400
Text GLabel 2200 3250 2    50   Output ~ 0
IUVIARTS
Wire Wire Line
	2050 3250 2200 3250
$Comp
L Device:R R?
U 1 1 5E6B8138
P 3750 3400
F 0 "R?" H 3820 3446 50  0000 L CNN
F 1 "220k" H 3820 3355 50  0000 L CNN
F 2 "" V 3680 3400 50  0001 C CNN
F 3 "~" H 3750 3400 50  0001 C CNN
	1    3750 3400
	1    0    0    -1  
$EndComp
$Comp
L Device:R R?
U 1 1 5E6B9DEF
P 3750 3900
F 0 "R?" H 3820 3946 50  0000 L CNN
F 1 "100k" H 3820 3855 50  0000 L CNN
F 2 "" V 3680 3900 50  0001 C CNN
F 3 "~" H 3750 3900 50  0001 C CNN
	1    3750 3900
	1    0    0    -1  
$EndComp
Text GLabel 4050 3650 2    50   Output ~ 0
ADC
Wire Wire Line
	3750 3550 3750 3650
Wire Wire Line
	4050 3650 3750 3650
Connection ~ 3750 3650
Wire Wire Line
	3750 3650 3750 3750
$Comp
L power:GND #PWR?
U 1 1 5E6C0E79
P 3750 4150
F 0 "#PWR?" H 3750 3900 50  0001 C CNN
F 1 "GND" H 3755 3977 50  0000 C CNN
F 2 "" H 3750 4150 50  0001 C CNN
F 3 "" H 3750 4150 50  0001 C CNN
	1    3750 4150
	1    0    0    -1  
$EndComp
Wire Wire Line
	3750 4050 3750 4150
Text GLabel 4000 3050 2    50   Input ~ 0
PWRMSR
Wire Wire Line
	4000 3050 3750 3050
Wire Wire Line
	3750 3050 3750 3250
$Comp
L power:GND #PWR?
U 1 1 5E6CCD4A
P 3500 2700
F 0 "#PWR?" H 3500 2450 50  0001 C CNN
F 1 "GND" H 3505 2527 50  0000 C CNN
F 2 "" H 3500 2700 50  0001 C CNN
F 3 "" H 3500 2700 50  0001 C CNN
	1    3500 2700
	1    0    0    -1  
$EndComp
Wire Wire Line
	3500 2650 3500 2700
Wire Wire Line
	3500 2650 3650 2650
Text GLabel 3500 2150 0    50   Input ~ 0
EN
Wire Wire Line
	3500 2150 3650 2150
Text GLabel 3500 1850 0    50   Input ~ 0
RST
Wire Wire Line
	3500 1850 3650 1850
$Comp
L power:+3V3 #PWR?
U 1 1 5E6DE2B9
P 3550 1450
F 0 "#PWR?" H 3550 1300 50  0001 C CNN
F 1 "+3V3" H 3565 1623 50  0000 C CNN
F 2 "" H 3550 1450 50  0001 C CNN
F 3 "" H 3550 1450 50  0001 C CNN
	1    3550 1450
	1    0    0    -1  
$EndComp
Wire Wire Line
	3550 1450 3550 1550
Wire Wire Line
	3550 1550 3650 1550
$Comp
L Device:C C?
U 1 1 5E6E2D18
P 3100 1450
F 0 "C?" H 3150 1600 50  0000 L CNN
F 1 "100n" H 3100 1350 50  0000 L CNN
F 2 "" H 3138 1300 50  0001 C CNN
F 3 "~" H 3100 1450 50  0001 C CNN
	1    3100 1450
	1    0    0    -1  
$EndComp
$Comp
L Device:CP C?
U 1 1 5E6E3C87
P 2850 1450
F 0 "C?" H 2900 1600 50  0000 L CNN
F 1 "10uF" H 2850 1350 50  0000 L CNN
F 2 "" H 2888 1300 50  0001 C CNN
F 3 "~" H 2850 1450 50  0001 C CNN
	1    2850 1450
	1    0    0    -1  
$EndComp
$Comp
L power:+3V3 #PWR?
U 1 1 5E6E425F
P 2850 1200
F 0 "#PWR?" H 2850 1050 50  0001 C CNN
F 1 "+3V3" H 2865 1373 50  0000 C CNN
F 2 "" H 2850 1200 50  0001 C CNN
F 3 "" H 2850 1200 50  0001 C CNN
	1    2850 1200
	1    0    0    -1  
$EndComp
$Comp
L power:+3V3 #PWR?
U 1 1 5E6E4660
P 3100 1200
F 0 "#PWR?" H 3100 1050 50  0001 C CNN
F 1 "+3V3" H 3115 1373 50  0000 C CNN
F 2 "" H 3100 1200 50  0001 C CNN
F 3 "" H 3100 1200 50  0001 C CNN
	1    3100 1200
	1    0    0    -1  
$EndComp
Wire Wire Line
	2850 1200 2850 1300
Wire Wire Line
	3100 1200 3100 1300
$Comp
L power:GND #PWR?
U 1 1 5E6ECF04
P 2850 1750
F 0 "#PWR?" H 2850 1500 50  0001 C CNN
F 1 "GND" H 2855 1577 50  0000 C CNN
F 2 "" H 2850 1750 50  0001 C CNN
F 3 "" H 2850 1750 50  0001 C CNN
	1    2850 1750
	1    0    0    -1  
$EndComp
$Comp
L power:GND #PWR?
U 1 1 5E6ED2B5
P 3100 1750
F 0 "#PWR?" H 3100 1500 50  0001 C CNN
F 1 "GND" H 3105 1577 50  0000 C CNN
F 2 "" H 3100 1750 50  0001 C CNN
F 3 "" H 3100 1750 50  0001 C CNN
	1    3100 1750
	1    0    0    -1  
$EndComp
Wire Wire Line
	2850 1600 2850 1750
Wire Wire Line
	3100 1600 3100 1750
Text GLabel 7550 1750 0    50   BiDi ~ 0
D4
$EndSCHEMATC
